{
    "componentChunkName": "component---packages-blog-gatsby-blog-core-src-templates-collection-category-js",
    "path": "/category/alamaly/page/4/",
    "result": {"data":{"collectionInfo":{"id":"2c31ff3a-77a7-5d61-9380-1c244573c431","name":"الأمالي","slug":"/category/alamaly/","description":null},"posts":{"nodes":[{"id":"b990984b-caf7-5a41-b2ad-c7f3bce6bbe9","title":"#الأمالي الحلقة 15: من أخبار جبيهاء الأشجعي","slug":"/alamaly-alhlqt-15-mn-akhbar-jbyhae-alashjey/","link":"https://www.youtube.com/embed/W7seS_zyy5s","body":"var _excluded = [\"components\"];\n\nfunction _extends() { _extends = Object.assign || function (target) { for (var i = 1; i < arguments.length; i++) { var source = arguments[i]; for (var key in source) { if (Object.prototype.hasOwnProperty.call(source, key)) { target[key] = source[key]; } } } return target; }; return _extends.apply(this, arguments); }\n\nfunction _objectWithoutProperties(source, excluded) { if (source == null) return {}; var target = _objectWithoutPropertiesLoose(source, excluded); var key, i; if (Object.getOwnPropertySymbols) { var sourceSymbolKeys = Object.getOwnPropertySymbols(source); for (i = 0; i < sourceSymbolKeys.length; i++) { key = sourceSymbolKeys[i]; if (excluded.indexOf(key) >= 0) continue; if (!Object.prototype.propertyIsEnumerable.call(source, key)) continue; target[key] = source[key]; } } return target; }\n\nfunction _objectWithoutPropertiesLoose(source, excluded) { if (source == null) return {}; var target = {}; var sourceKeys = Object.keys(source); var key, i; for (i = 0; i < sourceKeys.length; i++) { key = sourceKeys[i]; if (excluded.indexOf(key) >= 0) continue; target[key] = source[key]; } return target; }\n\n/* @jsxRuntime classic */\n\n/* @jsx mdx */\nvar _frontmatter = {};\nvar layoutProps = {\n  _frontmatter: _frontmatter\n};\nvar MDXLayout = \"wrapper\";\nreturn function MDXContent(_ref) {\n  var components = _ref.components,\n      props = _objectWithoutProperties(_ref, _excluded);\n\n  return mdx(MDXLayout, _extends({}, layoutProps, props, {\n    components: components,\n    mdxType: \"MDXLayout\"\n  }), mdx(\"p\", null, \"#\\u0627\\u0644\\u0623\\u0645\\u0627\\u0644\\u064A \\u0627\\u0644\\u062D\\u0644\\u0642\\u0629 15: \\u0645\\u0646 \\u0623\\u062E\\u0628\\u0627\\u0631 \\u062C\\u0628\\u064A\\u0647\\u0627\\u0621 \\u0627\\u0644\\u0623\\u0634\\u062C\\u0639\\u064A\"));\n}\n;\nMDXContent.isMDXComponent = true;","excerpt":"#الأمالي الحلقة 15: من أخبار جبيهاء الأشجعي","timeToRead":1,"featured":null,"thumbnailText":null,"date":"May 31, 2021","category":{"id":"2c31ff3a-77a7-5d61-9380-1c244573c431","name":"الأمالي","slug":"/category/alamaly/","color":null,"icon":null},"author":null,"thumbnail":null},{"id":"783cc0cb-7f88-57b6-9cdb-14ced27ed565","title":"#الأمالي الحلقة 14: من أشعار عمرو بن معديكرب","slug":"/alamaly-alhlqt-14-mn-ashear-emrw-bn-medykrb/","link":"https://www.youtube.com/embed/CruhCub7850","body":"var _excluded = [\"components\"];\n\nfunction _extends() { _extends = Object.assign || function (target) { for (var i = 1; i < arguments.length; i++) { var source = arguments[i]; for (var key in source) { if (Object.prototype.hasOwnProperty.call(source, key)) { target[key] = source[key]; } } } return target; }; return _extends.apply(this, arguments); }\n\nfunction _objectWithoutProperties(source, excluded) { if (source == null) return {}; var target = _objectWithoutPropertiesLoose(source, excluded); var key, i; if (Object.getOwnPropertySymbols) { var sourceSymbolKeys = Object.getOwnPropertySymbols(source); for (i = 0; i < sourceSymbolKeys.length; i++) { key = sourceSymbolKeys[i]; if (excluded.indexOf(key) >= 0) continue; if (!Object.prototype.propertyIsEnumerable.call(source, key)) continue; target[key] = source[key]; } } return target; }\n\nfunction _objectWithoutPropertiesLoose(source, excluded) { if (source == null) return {}; var target = {}; var sourceKeys = Object.keys(source); var key, i; for (i = 0; i < sourceKeys.length; i++) { key = sourceKeys[i]; if (excluded.indexOf(key) >= 0) continue; target[key] = source[key]; } return target; }\n\n/* @jsxRuntime classic */\n\n/* @jsx mdx */\nvar _frontmatter = {};\nvar layoutProps = {\n  _frontmatter: _frontmatter\n};\nvar MDXLayout = \"wrapper\";\nreturn function MDXContent(_ref) {\n  var components = _ref.components,\n      props = _objectWithoutProperties(_ref, _excluded);\n\n  return mdx(MDXLayout, _extends({}, layoutProps, props, {\n    components: components,\n    mdxType: \"MDXLayout\"\n  }), mdx(\"p\", null, mdx(\"a\", {\n    parentName: \"p\",\n    \"href\": \"https://www.youtube.com/watch?v=CruhCub7850&list=UU1Rf7_9bfaj3upWFLu8Dfnw&index=34\"\n  }, \"https://www.youtube.com/watch?v=CruhCub7850&list=UU1Rf7_9bfaj3upWFLu8Dfnw&index=34\")));\n}\n;\nMDXContent.isMDXComponent = true;","excerpt":"https://www.youtube.com/watch?v=CruhCub7850&list=UU1Rf7_9bfaj3upWFLu8Dfnw&index=34","timeToRead":1,"featured":null,"thumbnailText":null,"date":"May 24, 2021","category":{"id":"2c31ff3a-77a7-5d61-9380-1c244573c431","name":"الأمالي","slug":"/category/alamaly/","color":null,"icon":null},"author":null,"thumbnail":null},{"id":"38c59a84-f2fa-518d-be3e-dc29111e7ad8","title":"#الأمالي الحلقة 13: من أخبار بني قيس بن ثعلبة (من بني بكر)","slug":"/alamaly-alhlqt-13-mn-akhbar-bny-qys-bn-thelbt-mn-bny-bkr/","link":"https://www.youtube.com/embed/_hQb_zn_hmA","body":"var _excluded = [\"components\"];\n\nfunction _extends() { _extends = Object.assign || function (target) { for (var i = 1; i < arguments.length; i++) { var source = arguments[i]; for (var key in source) { if (Object.prototype.hasOwnProperty.call(source, key)) { target[key] = source[key]; } } } return target; }; return _extends.apply(this, arguments); }\n\nfunction _objectWithoutProperties(source, excluded) { if (source == null) return {}; var target = _objectWithoutPropertiesLoose(source, excluded); var key, i; if (Object.getOwnPropertySymbols) { var sourceSymbolKeys = Object.getOwnPropertySymbols(source); for (i = 0; i < sourceSymbolKeys.length; i++) { key = sourceSymbolKeys[i]; if (excluded.indexOf(key) >= 0) continue; if (!Object.prototype.propertyIsEnumerable.call(source, key)) continue; target[key] = source[key]; } } return target; }\n\nfunction _objectWithoutPropertiesLoose(source, excluded) { if (source == null) return {}; var target = {}; var sourceKeys = Object.keys(source); var key, i; for (i = 0; i < sourceKeys.length; i++) { key = sourceKeys[i]; if (excluded.indexOf(key) >= 0) continue; target[key] = source[key]; } return target; }\n\n/* @jsxRuntime classic */\n\n/* @jsx mdx */\nvar _frontmatter = {};\nvar layoutProps = {\n  _frontmatter: _frontmatter\n};\nvar MDXLayout = \"wrapper\";\nreturn function MDXContent(_ref) {\n  var components = _ref.components,\n      props = _objectWithoutProperties(_ref, _excluded);\n\n  return mdx(MDXLayout, _extends({}, layoutProps, props, {\n    components: components,\n    mdxType: \"MDXLayout\"\n  }), mdx(\"p\", null, mdx(\"a\", {\n    parentName: \"p\",\n    \"href\": \"https://www.youtube.com/watch?v=_hQb_zn_hmA&list=UU1Rf7_9bfaj3upWFLu8Dfnw&index=35\"\n  }, \"https://www.youtube.com/watch?v=_hQb_zn_hmA&list=UU1Rf7_9bfaj3upWFLu8Dfnw&index=35\")));\n}\n;\nMDXContent.isMDXComponent = true;","excerpt":"https://www.youtube.com/watch?v=_hQb_zn_hmA&list=UU1Rf7_9bfaj3upWFLu8Dfnw&index=35","timeToRead":1,"featured":null,"thumbnailText":null,"date":"May 15, 2021","category":{"id":"2c31ff3a-77a7-5d61-9380-1c244573c431","name":"الأمالي","slug":"/category/alamaly/","color":null,"icon":null},"author":null,"thumbnail":null},{"id":"f9da0ccf-b4e8-525d-a7c6-801734bba433","title":"#الأمالي الحلقة 12/ أنساعُ الرَّحْلِ، وشرح بيتين لأبي الطيب #المتنبي","slug":"/alamaly-alhlqt-12-ansaeu-alr-h-l-wshrh-bytyn-laby-altyb-almtnby/","link":"https://www.youtube.com/embed/m3ODpXAvLuQ","body":"var _excluded = [\"components\"];\n\nfunction _extends() { _extends = Object.assign || function (target) { for (var i = 1; i < arguments.length; i++) { var source = arguments[i]; for (var key in source) { if (Object.prototype.hasOwnProperty.call(source, key)) { target[key] = source[key]; } } } return target; }; return _extends.apply(this, arguments); }\n\nfunction _objectWithoutProperties(source, excluded) { if (source == null) return {}; var target = _objectWithoutPropertiesLoose(source, excluded); var key, i; if (Object.getOwnPropertySymbols) { var sourceSymbolKeys = Object.getOwnPropertySymbols(source); for (i = 0; i < sourceSymbolKeys.length; i++) { key = sourceSymbolKeys[i]; if (excluded.indexOf(key) >= 0) continue; if (!Object.prototype.propertyIsEnumerable.call(source, key)) continue; target[key] = source[key]; } } return target; }\n\nfunction _objectWithoutPropertiesLoose(source, excluded) { if (source == null) return {}; var target = {}; var sourceKeys = Object.keys(source); var key, i; for (i = 0; i < sourceKeys.length; i++) { key = sourceKeys[i]; if (excluded.indexOf(key) >= 0) continue; target[key] = source[key]; } return target; }\n\n/* @jsxRuntime classic */\n\n/* @jsx mdx */\nvar _frontmatter = {};\nvar layoutProps = {\n  _frontmatter: _frontmatter\n};\nvar MDXLayout = \"wrapper\";\nreturn function MDXContent(_ref) {\n  var components = _ref.components,\n      props = _objectWithoutProperties(_ref, _excluded);\n\n  return mdx(MDXLayout, _extends({}, layoutProps, props, {\n    components: components,\n    mdxType: \"MDXLayout\"\n  }), mdx(\"p\", null, \"#\\u0627\\u0644\\u0623\\u0645\\u0627\\u0644\\u064A \\u0627\\u0644\\u062D\\u0644\\u0642\\u0629 12/ \\u0623\\u0646\\u0633\\u0627\\u0639\\u064F \\u0627\\u0644\\u0631\\u064E\\u0651\\u062D\\u0652\\u0644\\u0650\\u060C \\u0648\\u0634\\u0631\\u062D \\u0628\\u064A\\u062A\\u064A\\u0646 \\u0644\\u0623\\u0628\\u064A \\u0627\\u0644\\u0637\\u064A\\u0628 #\\u0627\\u0644\\u0645\\u062A\\u0646\\u0628\\u064A\"));\n}\n;\nMDXContent.isMDXComponent = true;","excerpt":"#الأمالي الحلقة 12/ أنساعُ الرَّحْلِ، وشرح بيتين لأبي الطيب #المتنبي","timeToRead":1,"featured":null,"thumbnailText":null,"date":"May 09, 2021","category":{"id":"2c31ff3a-77a7-5d61-9380-1c244573c431","name":"الأمالي","slug":"/category/alamaly/","color":null,"icon":null},"author":null,"thumbnail":null},{"id":"f2b3f1e3-28b0-5d3d-b5aa-967813f400ef","title":"#الأمالي الحلقة 11: من أسفار الشاعر ذي الرمة (غيلان)","slug":"/alamaly-alhlqt-11-mn-asfar-alshaer-dhy-alrmt-ghylan/","link":"https://www.youtube.com/embed/r_1pOtTuOgM","body":"var _excluded = [\"components\"];\n\nfunction _extends() { _extends = Object.assign || function (target) { for (var i = 1; i < arguments.length; i++) { var source = arguments[i]; for (var key in source) { if (Object.prototype.hasOwnProperty.call(source, key)) { target[key] = source[key]; } } } return target; }; return _extends.apply(this, arguments); }\n\nfunction _objectWithoutProperties(source, excluded) { if (source == null) return {}; var target = _objectWithoutPropertiesLoose(source, excluded); var key, i; if (Object.getOwnPropertySymbols) { var sourceSymbolKeys = Object.getOwnPropertySymbols(source); for (i = 0; i < sourceSymbolKeys.length; i++) { key = sourceSymbolKeys[i]; if (excluded.indexOf(key) >= 0) continue; if (!Object.prototype.propertyIsEnumerable.call(source, key)) continue; target[key] = source[key]; } } return target; }\n\nfunction _objectWithoutPropertiesLoose(source, excluded) { if (source == null) return {}; var target = {}; var sourceKeys = Object.keys(source); var key, i; for (i = 0; i < sourceKeys.length; i++) { key = sourceKeys[i]; if (excluded.indexOf(key) >= 0) continue; target[key] = source[key]; } return target; }\n\n/* @jsxRuntime classic */\n\n/* @jsx mdx */\nvar _frontmatter = {};\nvar layoutProps = {\n  _frontmatter: _frontmatter\n};\nvar MDXLayout = \"wrapper\";\nreturn function MDXContent(_ref) {\n  var components = _ref.components,\n      props = _objectWithoutProperties(_ref, _excluded);\n\n  return mdx(MDXLayout, _extends({}, layoutProps, props, {\n    components: components,\n    mdxType: \"MDXLayout\"\n  }), mdx(\"p\", null, mdx(\"a\", {\n    parentName: \"p\",\n    \"href\": \"https://www.youtube.com/watch?v=r_1pOtTuOgM&list=UU1Rf7_9bfaj3upWFLu8Dfnw&index=37\"\n  }, \"https://www.youtube.com/watch?v=r_1pOtTuOgM&list=UU1Rf7_9bfaj3upWFLu8Dfnw&index=37\")));\n}\n;\nMDXContent.isMDXComponent = true;","excerpt":"https://www.youtube.com/watch?v=r_1pOtTuOgM&list=UU1Rf7_9bfaj3upWFLu8Dfnw&index=37","timeToRead":1,"featured":null,"thumbnailText":null,"date":"May 06, 2021","category":{"id":"2c31ff3a-77a7-5d61-9380-1c244573c431","name":"الأمالي","slug":"/category/alamaly/","color":null,"icon":null},"author":null,"thumbnail":null},{"id":"5197e245-a53d-5db8-aadb-bb1841476a40","title":"#الأمالي الحلقة 9/ لِمَ سُميت الناقة أم حائل؟","slug":"/alamaly-alhlqt-9-l-m-sumyt-alnaqt-am-hayl/","link":"https://www.youtube.com/embed/MDAlhMdKt14","body":"var _excluded = [\"components\"];\n\nfunction _extends() { _extends = Object.assign || function (target) { for (var i = 1; i < arguments.length; i++) { var source = arguments[i]; for (var key in source) { if (Object.prototype.hasOwnProperty.call(source, key)) { target[key] = source[key]; } } } return target; }; return _extends.apply(this, arguments); }\n\nfunction _objectWithoutProperties(source, excluded) { if (source == null) return {}; var target = _objectWithoutPropertiesLoose(source, excluded); var key, i; if (Object.getOwnPropertySymbols) { var sourceSymbolKeys = Object.getOwnPropertySymbols(source); for (i = 0; i < sourceSymbolKeys.length; i++) { key = sourceSymbolKeys[i]; if (excluded.indexOf(key) >= 0) continue; if (!Object.prototype.propertyIsEnumerable.call(source, key)) continue; target[key] = source[key]; } } return target; }\n\nfunction _objectWithoutPropertiesLoose(source, excluded) { if (source == null) return {}; var target = {}; var sourceKeys = Object.keys(source); var key, i; for (i = 0; i < sourceKeys.length; i++) { key = sourceKeys[i]; if (excluded.indexOf(key) >= 0) continue; target[key] = source[key]; } return target; }\n\n/* @jsxRuntime classic */\n\n/* @jsx mdx */\nvar _frontmatter = {};\nvar layoutProps = {\n  _frontmatter: _frontmatter\n};\nvar MDXLayout = \"wrapper\";\nreturn function MDXContent(_ref) {\n  var components = _ref.components,\n      props = _objectWithoutProperties(_ref, _excluded);\n\n  return mdx(MDXLayout, _extends({}, layoutProps, props, {\n    components: components,\n    mdxType: \"MDXLayout\"\n  }), mdx(\"p\", null, mdx(\"a\", {\n    parentName: \"p\",\n    \"href\": \"https://www.youtube.com/watch?v=MDAlhMdKt14&list=UU1Rf7_9bfaj3upWFLu8Dfnw&index=39\"\n  }, \"https://www.youtube.com/watch?v=MDAlhMdKt14&list=UU1Rf7_9bfaj3upWFLu8Dfnw&index=39\")));\n}\n;\nMDXContent.isMDXComponent = true;","excerpt":"https://www.youtube.com/watch?v=MDAlhMdKt14&list=UU1Rf7_9bfaj3upWFLu8Dfnw&index=39","timeToRead":1,"featured":null,"thumbnailText":null,"date":"April 27, 2021","category":{"id":"2c31ff3a-77a7-5d61-9380-1c244573c431","name":"الأمالي","slug":"/category/alamaly/","color":null,"icon":null},"author":null,"thumbnail":null},{"id":"ac71d82a-adbb-5010-965d-2eff521ac3de","title":"#الأمالي الحلقة 6 من مراتب سير الإبل وقصة بيت:  وهل أنا إلا من غزية إن غوت","slug":"/alamaly-alhlqt-6-mn-mratb-syr-alibl-wqst-byt-whl-ana-ila-mn-ghzyt-in-ghwt/","link":"https://www.youtube.com/embed/G2JZWYnK3Co","body":"var _excluded = [\"components\"];\n\nfunction _extends() { _extends = Object.assign || function (target) { for (var i = 1; i < arguments.length; i++) { var source = arguments[i]; for (var key in source) { if (Object.prototype.hasOwnProperty.call(source, key)) { target[key] = source[key]; } } } return target; }; return _extends.apply(this, arguments); }\n\nfunction _objectWithoutProperties(source, excluded) { if (source == null) return {}; var target = _objectWithoutPropertiesLoose(source, excluded); var key, i; if (Object.getOwnPropertySymbols) { var sourceSymbolKeys = Object.getOwnPropertySymbols(source); for (i = 0; i < sourceSymbolKeys.length; i++) { key = sourceSymbolKeys[i]; if (excluded.indexOf(key) >= 0) continue; if (!Object.prototype.propertyIsEnumerable.call(source, key)) continue; target[key] = source[key]; } } return target; }\n\nfunction _objectWithoutPropertiesLoose(source, excluded) { if (source == null) return {}; var target = {}; var sourceKeys = Object.keys(source); var key, i; for (i = 0; i < sourceKeys.length; i++) { key = sourceKeys[i]; if (excluded.indexOf(key) >= 0) continue; target[key] = source[key]; } return target; }\n\n/* @jsxRuntime classic */\n\n/* @jsx mdx */\nvar _frontmatter = {};\nvar layoutProps = {\n  _frontmatter: _frontmatter\n};\nvar MDXLayout = \"wrapper\";\nreturn function MDXContent(_ref) {\n  var components = _ref.components,\n      props = _objectWithoutProperties(_ref, _excluded);\n\n  return mdx(MDXLayout, _extends({}, layoutProps, props, {\n    components: components,\n    mdxType: \"MDXLayout\"\n  }), mdx(\"p\", null, mdx(\"a\", {\n    parentName: \"p\",\n    \"href\": \"https://www.youtube.com/watch?v=G2JZWYnK3Co&list=UU1Rf7_9bfaj3upWFLu8Dfnw&index=42\"\n  }, \"https://www.youtube.com/watch?v=G2JZWYnK3Co&list=UU1Rf7_9bfaj3upWFLu8Dfnw&index=42\")));\n}\n;\nMDXContent.isMDXComponent = true;","excerpt":"https://www.youtube.com/watch?v=G2JZWYnK3Co&list=UU1Rf7_9bfaj3upWFLu8Dfnw&index=42","timeToRead":1,"featured":null,"thumbnailText":null,"date":"April 16, 2021","category":{"id":"2c31ff3a-77a7-5d61-9380-1c244573c431","name":"الأمالي","slug":"/category/alamaly/","color":null,"icon":null},"author":null,"thumbnail":null},{"id":"d5dac050-cd3a-5d7b-ab06-d5b9393f8958","title":"الأمالي الحلقة 5: تشبيهات #ذي_الرمة و#المتنبي","slug":"/alamaly-alhlqt-5-tshbyhat-dhy-alrmt-w-almtnby/","link":"https://www.youtube.com/embed/Q4PcM4odz3Q","body":"var _excluded = [\"components\"];\n\nfunction _extends() { _extends = Object.assign || function (target) { for (var i = 1; i < arguments.length; i++) { var source = arguments[i]; for (var key in source) { if (Object.prototype.hasOwnProperty.call(source, key)) { target[key] = source[key]; } } } return target; }; return _extends.apply(this, arguments); }\n\nfunction _objectWithoutProperties(source, excluded) { if (source == null) return {}; var target = _objectWithoutPropertiesLoose(source, excluded); var key, i; if (Object.getOwnPropertySymbols) { var sourceSymbolKeys = Object.getOwnPropertySymbols(source); for (i = 0; i < sourceSymbolKeys.length; i++) { key = sourceSymbolKeys[i]; if (excluded.indexOf(key) >= 0) continue; if (!Object.prototype.propertyIsEnumerable.call(source, key)) continue; target[key] = source[key]; } } return target; }\n\nfunction _objectWithoutPropertiesLoose(source, excluded) { if (source == null) return {}; var target = {}; var sourceKeys = Object.keys(source); var key, i; for (i = 0; i < sourceKeys.length; i++) { key = sourceKeys[i]; if (excluded.indexOf(key) >= 0) continue; target[key] = source[key]; } return target; }\n\n/* @jsxRuntime classic */\n\n/* @jsx mdx */\nvar _frontmatter = {};\nvar layoutProps = {\n  _frontmatter: _frontmatter\n};\nvar MDXLayout = \"wrapper\";\nreturn function MDXContent(_ref) {\n  var components = _ref.components,\n      props = _objectWithoutProperties(_ref, _excluded);\n\n  return mdx(MDXLayout, _extends({}, layoutProps, props, {\n    components: components,\n    mdxType: \"MDXLayout\"\n  }), mdx(\"p\", null, mdx(\"a\", {\n    parentName: \"p\",\n    \"href\": \"https://www.youtube.com/watch?v=Olwi5apK6Oo&list=RDCMUCifZUETjBgcsFaS-ewfb3YQ&index=4\"\n  }, \"https://www.youtube.com/watch?v=Olwi5apK6Oo&list=RDCMUCifZUETjBgcsFaS-ewfb3YQ&index=4\")));\n}\n;\nMDXContent.isMDXComponent = true;","excerpt":"https://www.youtube.com/watch?v=Olwi5apK6Oo&list=RDCMUCifZUETjBgcsFaS-ewfb3YQ&index=4","timeToRead":1,"featured":null,"thumbnailText":null,"date":"April 14, 2021","category":{"id":"2c31ff3a-77a7-5d61-9380-1c244573c431","name":"الأمالي","slug":"/category/alamaly/","color":null,"icon":null},"author":null,"thumbnail":null},{"id":"e37f5789-aa00-5eb2-942d-708159cb5c68","title":"#الأمالي الحلقة 2: وفرة القاموس الرعوي في العربية","slug":"/alamaly-alhlqt-2-wfrt-alqamws-alrewy-fy-alerbyt/","link":"https://www.youtube.com/embed/CNTSjp6VkMM","body":"var _excluded = [\"components\"];\n\nfunction _extends() { _extends = Object.assign || function (target) { for (var i = 1; i < arguments.length; i++) { var source = arguments[i]; for (var key in source) { if (Object.prototype.hasOwnProperty.call(source, key)) { target[key] = source[key]; } } } return target; }; return _extends.apply(this, arguments); }\n\nfunction _objectWithoutProperties(source, excluded) { if (source == null) return {}; var target = _objectWithoutPropertiesLoose(source, excluded); var key, i; if (Object.getOwnPropertySymbols) { var sourceSymbolKeys = Object.getOwnPropertySymbols(source); for (i = 0; i < sourceSymbolKeys.length; i++) { key = sourceSymbolKeys[i]; if (excluded.indexOf(key) >= 0) continue; if (!Object.prototype.propertyIsEnumerable.call(source, key)) continue; target[key] = source[key]; } } return target; }\n\nfunction _objectWithoutPropertiesLoose(source, excluded) { if (source == null) return {}; var target = {}; var sourceKeys = Object.keys(source); var key, i; for (i = 0; i < sourceKeys.length; i++) { key = sourceKeys[i]; if (excluded.indexOf(key) >= 0) continue; target[key] = source[key]; } return target; }\n\n/* @jsxRuntime classic */\n\n/* @jsx mdx */\nvar _frontmatter = {};\nvar layoutProps = {\n  _frontmatter: _frontmatter\n};\nvar MDXLayout = \"wrapper\";\nreturn function MDXContent(_ref) {\n  var components = _ref.components,\n      props = _objectWithoutProperties(_ref, _excluded);\n\n  return mdx(MDXLayout, _extends({}, layoutProps, props, {\n    components: components,\n    mdxType: \"MDXLayout\"\n  }), mdx(\"p\", null, mdx(\"a\", {\n    parentName: \"p\",\n    \"href\": \"https://www.youtube.com/watch?v=CNTSjp6VkMM\"\n  }, \"https://www.youtube.com/watch?v=CNTSjp6VkMM\")));\n}\n;\nMDXContent.isMDXComponent = true;","excerpt":"https://www.youtube.com/watch?v=CNTSjp6VkMM","timeToRead":1,"featured":null,"thumbnailText":null,"date":"April 09, 2021","category":{"id":"2c31ff3a-77a7-5d61-9380-1c244573c431","name":"الأمالي","slug":"/category/alamaly/","color":null,"icon":null},"author":null,"thumbnail":null},{"id":"c436ef99-d3dd-582d-a5ba-7a37db289639","title":"#الأمالي الحلقة 10: من أسماء #الزوجة وأمثلة ذلك من الشعر","slug":"/alamaly-alhlqt-10-mn-asmae-alzwjt-wamthlt-dhlk-mn-alsher/","link":"https://www.youtube.com/embed/ddk0PsF7VAk","body":"var _excluded = [\"components\"];\n\nfunction _extends() { _extends = Object.assign || function (target) { for (var i = 1; i < arguments.length; i++) { var source = arguments[i]; for (var key in source) { if (Object.prototype.hasOwnProperty.call(source, key)) { target[key] = source[key]; } } } return target; }; return _extends.apply(this, arguments); }\n\nfunction _objectWithoutProperties(source, excluded) { if (source == null) return {}; var target = _objectWithoutPropertiesLoose(source, excluded); var key, i; if (Object.getOwnPropertySymbols) { var sourceSymbolKeys = Object.getOwnPropertySymbols(source); for (i = 0; i < sourceSymbolKeys.length; i++) { key = sourceSymbolKeys[i]; if (excluded.indexOf(key) >= 0) continue; if (!Object.prototype.propertyIsEnumerable.call(source, key)) continue; target[key] = source[key]; } } return target; }\n\nfunction _objectWithoutPropertiesLoose(source, excluded) { if (source == null) return {}; var target = {}; var sourceKeys = Object.keys(source); var key, i; for (i = 0; i < sourceKeys.length; i++) { key = sourceKeys[i]; if (excluded.indexOf(key) >= 0) continue; target[key] = source[key]; } return target; }\n\n/* @jsxRuntime classic */\n\n/* @jsx mdx */\nvar _frontmatter = {};\nvar layoutProps = {\n  _frontmatter: _frontmatter\n};\nvar MDXLayout = \"wrapper\";\nreturn function MDXContent(_ref) {\n  var components = _ref.components,\n      props = _objectWithoutProperties(_ref, _excluded);\n\n  return mdx(MDXLayout, _extends({}, layoutProps, props, {\n    components: components,\n    mdxType: \"MDXLayout\"\n  }), mdx(\"p\", null, mdx(\"a\", {\n    parentName: \"p\",\n    \"href\": \"https://www.youtube.com/watch?v=ddk0PsF7VAk&list=UU1Rf7_9bfaj3upWFLu8Dfnw&index=38\"\n  }, \"https://www.youtube.com/watch?v=ddk0PsF7VAk&list=UU1Rf7_9bfaj3upWFLu8Dfnw&index=38\")));\n}\n;\nMDXContent.isMDXComponent = true;","excerpt":"https://www.youtube.com/watch?v=ddk0PsF7VAk&list=UU1Rf7_9bfaj3upWFLu8Dfnw&index=38","timeToRead":1,"featured":null,"thumbnailText":null,"date":"July 16, 2020","category":{"id":"2c31ff3a-77a7-5d61-9380-1c244573c431","name":"الأمالي","slug":"/category/alamaly/","color":null,"icon":null},"author":null,"thumbnail":null}],"pageInfo":{"pageCount":4,"hasPreviousPage":true,"hasNextPage":false,"currentPage":4},"totalCount":46}},"pageContext":{"slug":"/category/alamaly/","limit":12,"skip":36,"collectionType":"category","paginatePostsPage":false,"basePath":"/","services":{"mailchimp":false,"disqus":false},"siteUrl":null,"mobileMenu":{"title":"مواضيع","items":[{"name":"الشيخ محمد محمود ولد أحمد الشيخ الشنقيطي","slug":"/category/alshykh-mhmd-mhmwd-wld-ahmd-alshykh-alshnqyty/"},{"name":"الصفحة الفكرية","slug":"/category/fkryt/"},{"name":"الألغاز الفقهية على مذهب المالكية","slug":"/category/alalghaz-alfqhyt-ela-mdhhb-almalkyt/"},{"name":"شرح نظم حوادث السنين النبوية","slug":"/category/shrh-nzm-hwadth-alsnyn-alnbwyt/"},{"name":"سيرة الحبيب","slug":"/category/syrt-alhbyb/"},{"name":"شرح المعلقات","slug":"/category/shrh-almelqat/"},{"name":"شرح كتاب قواعد الإعراب للإمام ابن هشام","slug":"/category/shrh-ktab-qwaed-alierab-llimam-abn-hsham/"},{"name":"الأدب والفن","slug":"/category/adab/"},{"name":"شرح كتاب المختار من شعر الشعراء الستة الجاهليين","slug":"/category/shrh-ktab-almkhtar-mn-sher-alsherae-alstt-aljahlyyn/"},{"name":"قناة بِلنْيار للتراث للثقافي","slug":"/category/qnat/"},{"name":"الفكر والسياسة","slug":"/category/vikr/"},{"name":"التعليق على ديوان حماسة أبي تمام","slug":"/category/altelyq-ela-dywan-hmast-aby-tmam/"},{"name":"أسمار وأفكار","slug":"/category/asmar-wafkar/"},{"name":"الفضاء الثقافي","slug":"/category/alfdae-althqafy/"},{"name":"الأمالي","slug":"/category/alamaly/"},{"name":"تاسدبيت","slug":"/category/tasdbyt/"},{"name":" الشيخ محمد الحسن الددو","slug":"/category/alshykh-mhmd-alhsn-alddw/"},{"name":"الشيخ سعيد الكملي","slug":"/category/alshykh-seyd-alkmly/"},{"name":"أحكام الصلاة - بصائر","slug":"/category/ahkam-alslat-bsayr/"},{"name":"الأدب الحساني","slug":"/category/aladb-alhsany/"},{"name":"أرشيف","slug":"/category/alknash/"},{"name":"فيديو","slug":"/category/video/"},{"name":"التاريخ","slug":"/category/tarikh/"},{"name":"الصفحة الأدبية","slug":"/category/adbyt/"},{"name":"الصفحة الإسلامية","slug":"/category/islamyt/"},{"name":"الصفحة التاريخية","slug":"/category/tarykhyt/"},{"name":"صور","slug":"/category/photo/"},{"name":"Collection Getty","slug":"/category/mjmwe-getty/"},{"name":"Collection Toutah ahmed ","slug":"/category/mjmwet-toutah-ahmed/"},{"name":"Collection Bilignar","slug":"/category/mjmwet-b-ln-yar/"},{"name":"Autres sources","slug":"/category/msadr-akhra/"},{"name":"وثائق","slug":"/category/wthayq/"},{"name":"خرائط","slug":"/category/khrayt-qdymt/"},{"name":"كتب","slug":"/category/mnweat/"}]},"darkMode":true,"includeExcerpt":true,"includeTimeToRead":true,"imageQuality":80}},
    "staticQueryHashes": ["1434057858","1992822086"]}